Src/top_tb.vcd
$date
	Wed Dec 10 19:01:28 2025
$end
$version
	Icarus Verilog
$end
$timescale
	1ns
$end
$scope module top_tb $end
$var reg 1 ! clk $end
$var reg 1 " rst $end
$var integer 32 # i [31:0] $end
$scope module DUT $end
$var wire 1 ! clk $end
$var wire 1 " rst $end
$var wire 1 $ zero_top $end
$var wire 1 % zero_out1 $end
$var wire 32 & read_data_top [31:0] $end
$var wire 32 ' read_data_2_top [31:0] $end
$var wire 32 ( read_data_1_top [31:0] $end
$var wire 5 ) rd_top [4:0] $end
$var wire 5 * r2_top [4:0] $end
$var wire 5 + r1_top [4:0] $end
$var wire 32 , pc_mux_out [31:0] $end
$var wire 2 - pc_mux_ctrl [1:0] $end
$var wire 7 . opcode_top [6:0] $end
$var wire 32 / muxwb_out_top [31:0] $end
$var wire 32 0 muxb_out_top [31:0] $end
$var wire 32 1 muxb1_out_top [31:0] $end
$var wire 32 2 muxa_out_top [31:0] $end
$var wire 5 3 mem_wb_rd_out [4:0] $end
$var wire 32 4 mem_wb_mem_read_data_out [31:0] $end
$var wire 32 5 mem_wb_alu_result_out [31:0] $end
$var wire 32 6 instruction_top [31:0] $end
$var wire 32 7 if_id_instruction_out [31:0] $end
$var wire 32 8 if_id_PC_out [31:0] $end
$var wire 32 9 id_ex_rs2_out [31:0] $end
$var wire 32 : id_ex_rs1_out [31:0] $end
$var wire 5 ; id_ex_rd_out [4:0] $end
$var wire 5 < id_ex_r2_out [4:0] $end
$var wire 5 = id_ex_r1_out [4:0] $end
$var wire 32 > id_ex_imm_out [31:0] $end
$var wire 32 ? id_ex_PC_out [31:0] $end
$var wire 1 @ fun7_top $end
$var wire 1 A fun7_out $end
$var wire 3 B fun3_top [2:0] $end
$var wire 3 C fun3_out [2:0] $end
$var wire 2 D forwardB [1:0] $end
$var wire 2 E forwardA [1:0] $end
$var wire 1 F flush_top $end
$var wire 32 G ex_mem_rs2_out [31:0] $end
$var wire 5 H ex_mem_rd_out [4:0] $end
$var wire 32 I ex_mem_ALU_out_out [31:0] $end
$var wire 4 J control_out_top [3:0] $end
$var wire 32 K branch_calc_out_out [31:0] $end
$var wire 32 L branch_cal_adder_out_top [31:0] $end
$var wire 1 M and_out_top $end
$var wire 1 N RegWrite_top $end
$var wire 1 O RegWrite_out3 $end
$var wire 1 P RegWrite_out2 $end
$var wire 1 Q RegWrite_out1 $end
$var wire 32 R PC_top [31:0] $end
$var wire 32 S PC_inc_out [31:0] $end
$var wire 1 T MemtoReg_top $end
$var wire 1 U MemtoReg_out3 $end
$var wire 1 V MemtoReg_out2 $end
$var wire 1 W MemtoReg_out1 $end
$var wire 1 X MemWrite_top $end
$var wire 1 Y MemWrite_out3 $end
$var wire 1 Z MemWrite_out2 $end
$var wire 1 [ MemWrite_out1 $end
$var wire 1 \ MemRead_top $end
$var wire 1 ] MemRead_out3 $end
$var wire 1 ^ MemRead_out2 $end
$var wire 1 _ MemRead_out1 $end
$var wire 1 ` LUI_en_top $end
$var wire 1 a LUI_en_out3 $end
$var wire 1 b LUI_en_out2 $end
$var wire 1 c LUI_en_out1 $end
$var wire 1 d JALr_en_top $end
$var wire 1 e JALr_en_out3 $end
$var wire 1 f JALr_en_out2 $end
$var wire 1 g JALr_en_out1 $end
$var wire 1 h JAL_en_top $end
$var wire 1 i JAL_en_out3 $end
$var wire 1 j JAL_en_out2 $end
$var wire 1 k JAL_en_out1 $end
$var wire 32 l ImmExt_top [31:0] $end
$var wire 1 m Branch_top $end
$var wire 1 n Branch_out3 $end
$var wire 1 o Branch_out2 $end
$var wire 1 p Branch_out1 $end
$var wire 1 q AUIPC_en_top $end
$var wire 1 r AUIPC_en_out3 $end
$var wire 1 s AUIPC_en_out2 $end
$var wire 1 t AUIPC_en_out1 $end
$var wire 32 u ALU_result [31:0] $end
$var wire 32 v ALU_out_top [31:0] $end
$var wire 1 w ALUSrc_top $end
$var wire 1 x ALUSrc_out3 $end
$var wire 1 y ALUSrc_out2 $end
$var wire 1 z ALUSrc_out1 $end
$var wire 2 { ALUOp_top [1:0] $end
$var wire 2 | ALUOp_out3 [1:0] $end
$var wire 2 } ALUOp_out2 [1:0] $end
$var wire 2 ~ ALUOp_out1 [1:0] $end
$scope module ALU $end
$var wire 4 !" control_in [3:0] $end
$var wire 32 "" B [31:0] $end
$var wire 32 #" A [31:0] $end
$var reg 32 $" ALU_out [31:0] $end
$var reg 1 $ zero $end
$upscope $end
$scope module ALU_control $end
$var wire 1 A fun7 $end
$var wire 3 %" fun3 [2:0] $end
$var wire 2 &" ALUOp [1:0] $end
$var reg 4 '" control_out [3:0] $end
$upscope $end
$scope module EX_MEM_reg $end
$var wire 1 ! clk $end
$var wire 1 " rst $end
$var wire 1 $ zero_in1 $end
$var wire 32 (" ex_mem_rs2_in [31:0] $end
$var wire 5 )" ex_mem_rd_in [4:0] $end
$var wire 32 *" ex_mem_ALU_out_in [31:0] $end
$var wire 32 +" branch_calc_out_in [31:0] $end
$var wire 1 Q RegWrite_in2 $end
$var wire 1 W MemtoReg_in2 $end
$var wire 1 [ MemWrite_in2 $end
$var wire 1 _ MemRead_in2 $end
$var wire 1 c LUI_en_in2 $end
$var wire 1 g JALr_en_in2 $end
$var wire 1 k JAL_en_in2 $end
$var wire 1 p Branch_in2 $end
$var wire 1 t AUIPC_en_in2 $end
$var wire 1 z ALUSrc_in2 $end
$var wire 2 ," ALUOp_in2 [1:0] $end
$var reg 2 -" ALUOp_out2 [1:0] $end
$var reg 1 y ALUSrc_out2 $end
$var reg 1 s AUIPC_en_out2 $end
$var reg 1 o Branch_out2 $end
$var reg 1 j JAL_en_out2 $end
$var reg 1 f JALr_en_out2 $end
$var reg 1 b LUI_en_out2 $end
$var reg 1 ^ MemRead_out2 $end
$var reg 1 Z MemWrite_out2 $end
$var reg 1 V MemtoReg_out2 $end
$var reg 1 P RegWrite_out2 $end
$var reg 32 ." branch_calc_out_out [31:0] $end
$var reg 32 /" ex_mem_ALU_out_out [31:0] $end
$var reg 5 0" ex_mem_rd_out [4:0] $end
$var reg 32 1" ex_mem_rs2_out [31:0] $end
$var reg 1 % zero_out1 $end
$upscope $end
$scope module ID_EX_reg $end
$var wire 1 ! clk $end
$var wire 1 " rst $end
$var wire 32 2" id_ex_rs2_in [31:0] $end
$var wire 32 3" id_ex_rs1_in [31:0] $end
$var wire 5 4" id_ex_rd_in [4:0] $end
$var wire 5 5" id_ex_r2_in [4:0] $end
$var wire 5 6" id_ex_r1_in [4:0] $end
$var wire 32 7" id_ex_imm_in [31:0] $end
$var wire 32 8" id_ex_PC_in [31:0] $end
$var wire 1 @ fun7_in $end
$var wire 3 9" fun3_in [2:0] $end
$var wire 1 F flush $end
$var wire 1 N RegWrite_in1 $end
$var wire 1 T MemtoReg_in1 $end
$var wire 1 X MemWrite_in1 $end
$var wire 1 \ MemRead_in1 $end
$var wire 1 ` LUI_en_in1 $end
$var wire 1 d JALr_en_in1 $end
$var wire 1 h JAL_en_in1 $end
$var wire 1 m Branch_in1 $end
$var wire 1 q AUIPC_en_in1 $end
$var wire 1 w ALUSrc_in1 $end
$var wire 2 :" ALUOp_in1 [1:0] $end
$var reg 2 ;" ALUOp_out1 [1:0] $end
$var reg 1 z ALUSrc_out1 $end
$var reg 1 t AUIPC_en_out1 $end
$var reg 1 p Branch_out1 $end
$var reg 1 k JAL_en_out1 $end
$var reg 1 g JALr_en_out1 $end
$var reg 1 c LUI_en_out1 $end
$var reg 1 _ MemRead_out1 $end
$var reg 1 [ MemWrite_out1 $end
$var reg 1 W MemtoReg_out1 $end
$var reg 1 Q RegWrite_out1 $end
$var reg 3 <" fun3_out [2:0] $end
$var reg 1 A fun7_out $end
$var reg 32 =" id_ex_PC_out [31:0] $end
$var reg 32 >" id_ex_imm_out [31:0] $end
$var reg 5 ?" id_ex_r1_out [4:0] $end
$var reg 5 @" id_ex_r2_out [4:0] $end
$var reg 5 A" id_ex_rd_out [4:0] $end
$var reg 32 B" id_ex_rs1_out [31:0] $end
$var reg 32 C" id_ex_rs2_out [31:0] $end
$upscope $end
$scope module IF_ID_reg $end
$var wire 1 ! clk $end
$var wire 1 " rst $end
$var wire 1 F reg_flush $end
$var wire 32 D" if_id_instruction_in [31:0] $end
$var wire 32 E" if_id_PC_in [31:0] $end
$var reg 32 F" if_id_PC_out [31:0] $end
$var reg 32 G" if_id_instruction_out [31:0] $end
$upscope $end
$scope module ImmGen $end
$var wire 32 H" instruction [31:0] $end
$var wire 7 I" opcode [6:0] $end
$var reg 32 J" ImmExt [31:0] $end
$upscope $end
$scope module MEM_WB_reg $end
$var wire 2 K" ALUOp_in3 [1:0] $end
$var wire 1 y ALUSrc_in3 $end
$var wire 1 s AUIPC_en_in3 $end
$var wire 1 o Branch_in3 $end
$var wire 1 j JAL_en_in3 $end
$var wire 1 f JALr_en_in3 $end
$var wire 1 b LUI_en_in3 $end
$var wire 1 ^ MemRead_in3 $end
$var wire 1 Z MemWrite_in3 $end
$var wire 1 V MemtoReg_in3 $end
$var wire 1 P RegWrite_in3 $end
$var wire 1 ! clk $end
$var wire 32 L" mem_wb_alu_result_in [31:0] $end
$var wire 5 M" mem_wb_rd_in [4:0] $end
$var wire 1 " rst $end
$var wire 32 N" mem_wb_mem_read_data_in [31:0] $end
$var reg 2 O" ALUOp_out3 [1:0] $end
$var reg 1 x ALUSrc_out3 $end
$var reg 1 r AUIPC_en_out3 $end
$var reg 1 n Branch_out3 $end
$var reg 1 i JAL_en_out3 $end
$var reg 1 e JALr_en_out3 $end
$var reg 1 a LUI_en_out3 $end
$var reg 1 ] MemRead_out3 $end
$var reg 1 Y MemWrite_out3 $end
$var reg 1 U MemtoReg_out3 $end
$var reg 1 O RegWrite_out3 $end
$var reg 32 P" mem_wb_alu_result_out [31:0] $end
$var reg 32 Q" mem_wb_mem_read_data_out [31:0] $end
$var reg 5 R" mem_wb_rd_out [4:0] $end
$upscope $end
$scope module PC_inc $end
$var wire 32 S" toPC [31:0] $end
$var wire 32 T" fromPC [31:0] $end
$upscope $end
$scope module PC_mux $end
$var wire 32 U" A [31:0] $end
$var wire 32 V" B [31:0] $end
$var wire 2 W" sel [1:0] $end
$var wire 32 X" mux_out [31:0] $end
$var wire 32 Y" C [31:0] $end
$upscope $end
$scope module branch_calc_adder $end
$var wire 32 Z" a [31:0] $end
$var wire 32 [" b [31:0] $end
$var wire 32 \" c [31:0] $end
$upscope $end
$scope module control_unit $end
$var wire 7 ]" opcode [6:0] $end
$var reg 2 ^" ALUOp [1:0] $end
$var reg 1 w ALUSrc $end
$var reg 1 q AUIPC_en $end
$var reg 1 m Branch $end
$var reg 1 h JAL_en $end
$var reg 1 d JALr_en $end
$var reg 1 ` LUI_en $end
$var reg 1 \ MemRead $end
$var reg 1 X MemWrite $end
$var reg 1 T MemtoReg $end
$var reg 1 N RegWrite $end
$upscope $end
$scope module data_mem $end
$var wire 1 ^ MemRead $end
$var wire 1 Z MemWrite $end
$var wire 32 _" address [31:0] $end
$var wire 1 ! clk $end
$var wire 1 " rst $end
$var wire 32 `" write_data [31:0] $end
$var wire 32 a" read_data [31:0] $end
$var integer 32 b" k [31:0] $end
$upscope $end
$scope module forwarding_unit $end
$var wire 5 c" ex_mem_rd [4:0] $end
$var wire 1 P ex_mem_reg_write $end
$var wire 5 d" mem_wb_rd [4:0] $end
$var wire 1 O mem_wb_reg_write $end
$var wire 5 e" r1 [4:0] $end
$var wire 5 f" r2 [4:0] $end
$var reg 2 g" forwardA [1:0] $end
$var reg 2 h" forwardB [1:0] $end
$upscope $end
$scope module gatelogic $end
$var wire 1 p Branch $end
$var wire 1 M and_out $end
$var wire 1 $ zero $end
$upscope $end
$scope module inst_parser $end
$var wire 32 i" instruction [31:0] $end
$var wire 5 j" rd [4:0] $end
$var wire 5 k" r2 [4:0] $end
$var wire 5 l" r1 [4:0] $end
$var wire 7 m" opcode [6:0] $end
$var wire 1 @ fun7 $end
$var wire 3 n" fun3 [2:0] $end
$upscope $end
$scope module instruction_mem $end
$var wire 1 ! clk $end
$var wire 32 o" instruction_out [31:0] $end
$var wire 1 " rst $end
$var wire 32 p" read_address [31:0] $end
$upscope $end
$scope module jal_mux $end
$var wire 1 k JAL_en $end
$var wire 1 g JALr_en $end
$var wire 1 M branch $end
$var reg 1 F flush $end
$var reg 2 q" pc_mux_ctrl [1:0] $end
$upscope $end
$scope module mux_a $end
$var wire 32 r" A [31:0] $end
$var wire 32 s" C [31:0] $end
$var wire 2 t" sel [1:0] $end
$var wire 32 u" mux_out [31:0] $end
$var wire 32 v" B [31:0] $end
$upscope $end
$scope module mux_b $end
$var wire 32 w" A [31:0] $end
$var wire 32 x" C [31:0] $end
$var wire 2 y" sel [1:0] $end
$var wire 32 z" mux_out [31:0] $end
$var wire 32 {" B [31:0] $end
$upscope $end
$scope module mux_b1 $end
$var wire 32 |" A [31:0] $end
$var wire 32 }" B [31:0] $end
$var wire 1 z sel $end
$var wire 32 ~" mux_out [31:0] $end
$upscope $end
$scope module mux_control $end
$var wire 1 t AUIPC_en $end
$var wire 1 k JAL_en $end
$var wire 1 g JALr_en $end
$var wire 1 c LUI_en $end
$var wire 32 !# imm [31:0] $end
$var wire 32 "# mc_ALU_in [31:0] $end
$var wire 32 ## pc [31:0] $end
$var wire 32 $# rs1 [31:0] $end
$var wire 32 %# ALU_result [31:0] $end
$upscope $end
$scope module mux_wb $end
$var wire 32 &# A [31:0] $end
$var wire 32 '# B [31:0] $end
$var wire 1 U sel $end
$var wire 32 (# mux_out [31:0] $end
$upscope $end
$scope module program_counter $end
$var wire 32 )# PC_in [31:0] $end
$var wire 1 ! clk $end
$var wire 1 " rst $end
$var reg 32 *# PC_out [31:0] $end
$upscope $end
$scope module reg_file $end
$var wire 1 ! clk $end
$var wire 5 +# rd [4:0] $end
$var wire 1 O reg_write $end
$var wire 5 ,# rs1 [4:0] $end
$var wire 5 -# rs2 [4:0] $end
$var wire 1 " rst $end
$var wire 32 .# write_data [31:0] $end
$var wire 32 /# read_data_2 [31:0] $end
$var wire 32 0# read_data_1 [31:0] $end
$var integer 32 1# k [31:0] $end
$upscope $end
$upscope $end
$upscope $end
$enddefinitions $end
$comment Show the parameter values. $end
$dumpall
$end
#0
$dumpvars
b100000 1#
b0 0#
b0 /#
b0 .#
b0 -#
b0 ,#
b0 +#
b0 *#
b100 )#
b0 (#
b0 '#
b0 &#
b0 %#
b0 $#
b0 ##
b0 "#
b0 !#
b0 ~"
b0 }"
b0 |"
b0 {"
b0 z"
b0 y"
b0 x"
b0 w"
b0 v"
b0 u"
b0 t"
b0 s"
b0 r"
b0 q"
b0 p"
b10100000000000010010011 o"
b0 n"
b0 m"
b0 l"
b0 k"
b0 j"
b0 i"
b0 h"
b0 g"
b0 f"
b0 e"
b0 d"
b0 c"
b1000000 b"
b0 a"
b0 `"
b0 _"
b0 ^"
b0 ]"
b0 \"
b0 ["
b0 Z"
b0 Y"
b100 X"
b0 W"
b0 V"
b100 U"
b0 T"
b100 S"
b0 R"
b0 Q"
b0 P"
b0 O"
b0 N"
b0 M"
b0 L"
b0 K"
b0 J"
b0 I"
b0 H"
b0 G"
b0 F"
b0 E"
b10100000000000010010011 D"
b0 C"
b0 B"
b0 A"
b0 @"
b0 ?"
b0 >"
b0 ="
b0 <"
b0 ;"
b0 :"
b0 9"
b0 8"
b0 7"
b0 6"
b0 5"
b0 4"
b0 3"
b0 2"
b0 1"
b0 0"
b0 /"
b0 ."
b0 -"
b0 ,"
b0 +"
b0 *"
b0 )"
b0 ("
b10 '"
b0 &"
b0 %"
b0 $"
b0 #"
b0 ""
b10 !"
b0 ~
b0 }
b0 |
b0 {
0z
0y
0x
0w
b0 v
b0 u
0t
0s
0r
0q
0p
0o
0n
0m
b0 l
0k
0j
0i
0h
0g
0f
0e
0d
0c
0b
0a
0`
0_
0^
0]
0\
0[
0Z
0Y
0X
0W
0V
0U
0T
b100 S
b0 R
0Q
0P
0O
0N
0M
b0 L
b0 K
b10 J
b0 I
b0 H
b0 G
0F
b0 E
b0 D
b0 C
b0 B
0A
0@
b0 ?
b0 >
b0 =
b0 <
b0 ;
b0 :
b0 9
b0 8
b0 7
b10100000000000010010011 6
b0 5
b0 4
b0 3
b0 2
b0 1
b0 0
b0 /
b0 .
b0 -
b100 ,
b0 +
b0 *
b0 )
b0 (
b0 '
b0 &
0%
0$
b1000000 #
1"
0!
$end
#5
1w
1N
b11 {
b11 :"
b11 ^"
b101 l
b101 7"
b101 J"
b1010 '
b1010 2"
b1010 /#
b101 *
b101 5"
b101 k"
b101 -#
b1 )
b1 4"
b1 j"
b10011 .
b10011 I"
b10011 ]"
b10011 m"
b101000000000000100010011 6
b101000000000000100010011 D"
b101000000000000100010011 o"
b1000 ,
b1000 X"
b1000 )#
b10100000000000010010011 7
b10100000000000010010011 G"
b10100000000000010010011 H"
b10100000000000010010011 i"
b1000 S
b1000 S"
b1000 U"
b100 R
b100 E"
b100 T"
b100 p"
b100 *#
1!
0"
#10
0!
#15
b101 u
b101 *"
b101 Y"
b101 %#
b101 v
b101 $"
b101 "#
b1010 l
b1010 7"
b1010 J"
b10100 '
b10100 2"
b10100 /#
b101 1
b101 ""
b101 ~"
b1000001000000110110011 6
b1000001000000110110011 D"
b1000001000000110110011 o"
b1100 ,
b1100 X"
b1100 )#
b1010 *
b1010 5"
b1010 k"
b1010 -#
b10 )
b10 4"
b10 j"
b1010 0
b1010 ("
b1010 z"
b1010 |"
b1100 S
b1100 S"
b1100 U"
b1000 R
b1000 E"
b1000 T"
b1000 p"
b1000 *#
b101000000000000100010011 7
b101000000000000100010011 G"
b101000000000000100010011 H"
b101000000000000100010011 i"
b100 8
b100 8"
b100 F"
b11 ~
b11 &"
b11 ,"
b11 ;"
1Q
1z
b101 <
b101 @"
b101 f"
b1 ;
b1 )"
b1 A"
b1010 9
b1010 C"
b1010 w"
b101 L
b101 +"
b101 \"
b101 >
b101 >"
b101 ["
b101 }"
b101 !#
1!
#20
0!
#25
b1010 u
b1010 *"
b1010 Y"
b1010 %#
b1010 v
b1010 $"
b1010 "#
0w
b10 {
b10 :"
b10 ^"
b0 l
b0 7"
b0 J"
b10 (
b10 3"
b10 0#
b100 '
b100 2"
b100 /#
b10100 0
b10100 ("
b10100 z"
b10100 |"
b1010 1
b1010 ""
b1010 ~"
b1 +
b1 6"
b1 l"
b1 ,#
b10 *
b10 5"
b10 k"
b10 -#
b11 )
b11 4"
b11 j"
b110011 .
b110011 I"
b110011 ]"
b110011 m"
b1000000000100010000001000110011 6
b1000000000100010000001000110011 D"
b1000000000100010000001000110011 o"
b10000 ,
b10000 X"
b10000 )#
b11 }
b11 -"
b11 K"
1P
1y
b101 K
b101 ."
b101 V"
b1 H
b1 0"
b1 M"
b1 c"
b1010 G
b1010 1"
b1010 `"
b101 I
b101 /"
b101 L"
b101 _"
b101 s"
b101 x"
b1010 <
b1010 @"
b1010 f"
b10 ;
b10 )"
b10 A"
b10100 9
b10100 C"
b10100 w"
b1010 >
b1010 >"
b1010 ["
b1010 }"
b1010 !#
b1110 L
b1110 +"
b1110 \"
b100 ?
b100 ="
b100 Z"
b100 ##
b1000001000000110110011 7
b1000001000000110110011 G"
b1000001000000110110011 H"
b1000001000000110110011 i"
b1000 8
b1000 8"
b1000 F"
b10000 S
b10000 S"
b10000 U"
b1100 R
b1100 E"
b1100 T"
b1100 p"
b1100 *#
1!
#30
0!
#35
b1111 u
b1111 *"
b1111 Y"
b1111 %#
b1111 v
b1111 $"
b1111 "#
b101 '
b101 2"
b101 /#
b100 (
b100 3"
b100 0#
b1100000010000000100011 6
b1100000010000000100011 D"
b1100000010000000100011 o"
b10100 ,
b10100 X"
b10100 )#
b10 +
b10 6"
b10 l"
b10 ,#
b1 *
b1 5"
b1 k"
b1 -#
b100 )
b100 4"
b100 j"
1@
b1010 0
b1010 ("
b1010 z"
b1010 |"
b101 2
b101 #"
b101 u"
b101 $#
b1010 1
b1010 ""
b1010 ~"
b10 D
b10 h"
b10 y"
b1 E
b1 g"
b1 t"
b101 /
b101 v"
b101 {"
b101 (#
b101 .#
b10100 S
b10100 S"
b10100 U"
b10000 R
b10000 E"
b10000 T"
b10000 p"
b10000 *#
b1000000000100010000001000110011 7
b1000000000100010000001000110011 G"
b1000000000100010000001000110011 H"
b1000000000100010000001000110011 i"
b1100 8
b1100 8"
b1100 F"
b10 ~
b10 &"
b10 ,"
b10 ;"
0z
b10 <
b10 @"
b10 f"
b1 =
b1 ?"
b1 e"
b11 ;
b11 )"
b11 A"
b100 9
b100 C"
b100 w"
b10 :
b10 B"
b10 r"
b0 >
b0 >"
b0 ["
b0 }"
b0 !#
b1000 L
b1000 +"
b1000 \"
b1000 ?
b1000 ="
b1000 Z"
b1000 ##
b1110 K
b1110 ."
b1110 V"
b10 H
b10 0"
b10 M"
b10 c"
b10100 G
b10100 1"
b10100 `"
b1010 I
b1010 /"
b1010 L"
b1010 _"
b1010 s"
b1010 x"
b11 |
b11 O"
1O
1x
b1 3
b1 R"
b1 d"
b1 +#
b101 5
b101 P"
b101 &#
1!
#40
0!
#45
b101 u
b101 *"
b101 Y"
b101 %#
0$
b101 v
b101 $"
b101 "#
1w
0N
1X
b0 {
b0 :"
b0 ^"
b101 1
b101 ""
b101 ~"
b110 '
b110 2"
b110 /#
b101 0
b101 ("
b101 z"
b101 |"
b1010 2
b1010 #"
b1010 u"
b1010 $#
b0 (
b0 3"
b0 0#
b1010 /
b1010 v"
b1010 {"
b1010 (#
b1010 .#
b110 J
b110 !"
b110 '"
b0 D
b0 h"
b0 y"
b1 E
b1 g"
b1 t"
b0 +
b0 6"
b0 l"
b0 ,#
b11 *
b11 5"
b11 k"
b11 -#
b0 )
b0 4"
b0 j"
b100011 .
b100011 I"
b100011 ]"
b100011 m"
b10 B
b10 9"
b10 n"
0@
b10001010000011 6
b10001010000011 D"
b10001010000011 o"
b11000 ,
b11000 X"
b11000 )#
b10 3
b10 R"
b10 d"
b10 +#
b1010 5
b1010 P"
b1010 &#
b10 }
b10 -"
b10 K"
0y
b1000 K
b1000 ."
b1000 V"
b11 H
b11 0"
b11 M"
b11 c"
b1010 G
b1010 1"
b1010 `"
b1111 I
b1111 /"
b1111 L"
b1111 _"
b1111 s"
b1111 x"
1A
b1 <
b1 @"
b1 f"
b10 =
b10 ?"
b10 e"
b100 ;
b100 )"
b100 A"
b101 9
b101 C"
b101 w"
b100 :
b100 B"
b100 r"
b1100 L
b1100 +"
b1100 \"
b1100 ?
b1100 ="
b1100 Z"
b1100 ##
b1100000010000000100011 7
b1100000010000000100011 G"
b1100000010000000100011 H"
b1100000010000000100011 i"
b10000 8
b10000 8"
b10000 F"
b11000 S
b11000 S"
b11000 U"
b10100 R
b10100 E"
b10100 T"
b10100 p"
b10100 *#
1!
#50
0!
#55
b0 u
b0 *"
b0 Y"
b0 %#
1T
1N
1\
0X
b0 v
b0 $"
b0 "#
b0 1
b0 ""
b0 ~"
b0 2
b0 #"
b0 u"
b0 $#
b0 '
b0 2"
b0 /#
b11111110001000101001110011100011 6
b11111110001000101001110011100011 D"
b11111110001000101001110011100011 o"
b11100 ,
b11100 X"
b11100 )#
b0 *
b0 5"
b0 k"
b0 -#
b101 )
b101 4"
b101 j"
b11 .
b11 I"
b11 ]"
b11 m"
b10 J
b10 !"
b10 '"
b1111 0
b1111 ("
b1111 z"
b1111 |"
b1 D
b1 h"
b1 y"
b0 E
b0 g"
b0 t"
b1111 /
b1111 v"
b1111 {"
b1111 (#
b1111 .#
b11100 S
b11100 S"
b11100 U"
b11000 R
b11000 E"
b11000 T"
b11000 p"
b11000 *#
b10001010000011 7
b10001010000011 G"
b10001010000011 H"
b10001010000011 i"
b10100 8
b10100 8"
b10100 F"
b10 C
b10 %"
b10 <"
b0 ~
b0 &"
b0 ,"
b0 ;"
0A
0Q
1z
1[
b11 <
b11 @"
b11 f"
b0 =
b0 ?"
b0 e"
b0 ;
b0 )"
b0 A"
b110 9
b110 C"
b110 w"
b0 :
b0 B"
b0 r"
b10000 L
b10000 +"
b10000 \"
b10000 ?
b10000 ="
b10000 Z"
b10000 ##
b1100 K
b1100 ."
b1100 V"
b100 H
b100 0"
b100 M"
b100 c"
b101 G
b101 1"
b101 `"
b101 I
b101 /"
b101 L"
b101 _"
b101 s"
b101 x"
b10 |
b10 O"
0x
b11 3
b11 R"
b11 d"
b11 +#
b1111 5
b1111 P"
b1111 &#
1!
#60
0!
#65
0w
0T
0N
0\
1m
b1 {
b1 :"
b1 ^"
b11111111111111111111111111111000 l
b11111111111111111111111111111000 7"
b11111111111111111111111111111000 J"
b0 0
b0 ("
b0 z"
b0 |"
b1010 (
b1010 3"
b1010 0#
b1010 '
b1010 2"
b1010 /#
b101 /
b101 v"
b101 {"
b101 (#
b101 .#
b0 D
b0 h"
b0 y"
b101 +
b101 6"
b101 l"
b101 ,#
b10 *
b10 5"
b10 k"
b10 -#
b11001 )
b11001 4"
b11001 j"
b1100011 .
b1100011 I"
b1100011 ]"
b1100011 m"
b1 B
b1 9"
b1 n"
1@
b10010001101000101010100110111 6
b10010001101000101010100110111 D"
b10010001101000101010100110111 o"
b100000 ,
b100000 X"
b100000 )#
b100 3
b100 R"
b100 d"
b100 +#
b101 5
b101 P"
b101 &#
b0 }
b0 -"
b0 K"
0P
1y
1Z
b10000 K
b10000 ."
b10000 V"
b0 H
b0 0"
b0 M"
b0 c"
b1111 G
b1111 1"
b1111 `"
b0 I
b0 /"
b0 L"
b0 _"
b0 s"
b0 x"
1Q
0[
1W
1_
b0 <
b0 @"
b0 f"
b101 ;
b101 )"
b101 A"
b0 9
b0 C"
b0 w"
b10100 L
b10100 +"
b10100 \"
b10100 ?
b10100 ="
b10100 Z"
b10100 ##
b11111110001000101001110011100011 7
b11111110001000101001110011100011 G"
b11111110001000101001110011100011 H"
b11111110001000101001110011100011 i"
b11000 8
b11000 8"
b11000 F"
b100000 S
b100000 S"
b100000 U"
b11100 R
b11100 E"
b11100 T"
b11100 p"
b11100 *#
1!
#70
0!
#75
b11111111111111111111111111110110 u
b11111111111111111111111111110110 *"
b11111111111111111111111111110110 Y"
b11111111111111111111111111110110 %#
1N
0m
1`
b0 {
b0 :"
b0 ^"
b11111111111111111111111111110110 v
b11111111111111111111111111110110 $"
b11111111111111111111111111110110 "#
b10000 (
b10000 3"
b10000 0#
b1111 '
b1111 2"
b1111 /#
b1011000010111 6
b1011000010111 D"
b1011000010111 o"
b100100 ,
b100100 X"
b100100 )#
b10010001101000101000000000000 l
b10010001101000101000000000000 7"
b10010001101000101000000000000 J"
b1000 +
b1000 6"
b1000 l"
b1000 ,#
b11 *
b11 5"
b11 k"
b11 -#
b1010 )
b1010 4"
b1010 j"
b110111 .
b110111 I"
b110111 ]"
b110111 m"
b101 B
b101 9"
b101 n"
0@
b110 J
b110 !"
b110 '"
b1010 0
b1010 ("
b1010 z"
b1010 |"
b1010 1
b1010 ""
b1010 ~"
b1111 &
b1111 N"
b1111 a"
b10 E
b10 g"
b10 t"
b0 /
b0 v"
b0 {"
b0 (#
b0 .#
b100100 S
b100100 S"
b100100 U"
b100000 R
b100000 E"
b100000 T"
b100000 p"
b100000 *#
b10010001101000101010100110111 7
b10010001101000101010100110111 G"
b10010001101000101010100110111 H"
b10010001101000101010100110111 i"
b11100 8
b11100 8"
b11100 F"
b1 C
b1 %"
b1 <"
b1 ~
b1 &"
b1 ,"
b1 ;"
1A
0Q
0z
0W
0_
1p
b10 <
b10 @"
b10 f"
b101 =
b101 ?"
b101 e"
b11001 ;
b11001 )"
b11001 A"
b1010 9
b1010 C"
b1010 w"
b1010 :
b1010 B"
b1010 r"
b11111111111111111111111111111000 >
b11111111111111111111111111111000 >"
b11111111111111111111111111111000 ["
b11111111111111111111111111111000 }"
b11111111111111111111111111111000 !#
b10000 L
b10000 +"
b10000 \"
b11000 ?
b11000 ="
b11000 Z"
b11000 ##
1P
0Z
1V
1^
b10100 K
b10100 ."
b10100 V"
b101 H
b101 0"
b101 M"
b101 c"
b0 G
b0 1"
b0 `"
b0 |
b0 O"
0O
1x
1Y
b0 3
b0 R"
b0 d"
b0 +#
b0 5
b0 P"
b0 &#
1!
#80
0!
